ENCODER/simulation/qsim/encoder8.msim.vcd
$comment
	File created using the following command:
		vcd file encoder8.msim.vcd -direction
$end
$date
	Sun Oct 19 14:19:13 2025
$end
$version
	ModelSim Version 10.1d
$end
$timescale
	1ps
$end
$scope module encoder8_vlg_vec_tst $end
$var reg 1 ! d0 $end
$var reg 1 " d1 $end
$var reg 1 # d2 $end
$var reg 1 $ d3 $end
$var reg 1 % d4 $end
$var reg 1 & d5 $end
$var reg 1 ' d6 $end
$var reg 1 ( d7 $end
$var wire 1 ) a0 $end
$var wire 1 * a1 $end
$var wire 1 + a2 $end
$var wire 1 , sampler $end
$scope module i1 $end
$var wire 1 - gnd $end
$var wire 1 . vcc $end
$var wire 1 / unknown $end
$var tri1 1 0 devclrn $end
$var tri1 1 1 devpor $end
$var tri1 1 2 devoe $end
$var wire 1 3 d0~input_o $end
$var wire 1 4 a0~output_o $end
$var wire 1 5 a1~output_o $end
$var wire 1 6 a2~output_o $end
$var wire 1 7 d7~input_o $end
$var wire 1 8 d5~input_o $end
$var wire 1 9 d1~input_o $end
$var wire 1 : d3~input_o $end
$var wire 1 ; a0~0_combout $end
$var wire 1 < d2~input_o $end
$var wire 1 = d6~input_o $end
$var wire 1 > a1~0_combout $end
$var wire 1 ? d4~input_o $end
$var wire 1 @ a2~0_combout $end
$upscope $end
$upscope $end
$enddefinitions $end
#0
$dumpvars
0!
0"
0#
0$
0%
0&
0'
1(
1)
1*
1+
x,
0-
1.
x/
10
11
12
03
14
15
16
17
08
09
0:
1;
0<
0=
1>
0?
1@
$end
#30000
1!
1$
1'
13
1:
1=
0,
#60000
0!
0$
0'
03
0:
0=
1,
#90000
1!
1$
1'
13
1:
1=
0,
#120000
0!
0$
0'
03
0:
0=
1,
#150000
1!
1$
1'
13
1:
1=
0,
#180000
0!
0$
0'
03
0:
0=
1,
#210000
1!
1$
1'
13
1:
1=
0,
#240000
0!
0$
0'
03
0:
0=
1,
#270000
1!
1$
1'
13
1:
1=
0,
#300000
0!
0$
0'
03
0:
0=
1,
#330000
1!
1$
1'
13
1:
1=
0,
#360000
0!
0$
0'
03
0:
0=
1,
#390000
1!
1$
1'
13
1:
1=
0,
#420000
0!
0$
0'
03
0:
0=
1,
#450000
1!
1$
1'
13
1:
1=
0,
#480000
0!
0$
0'
03
0:
0=
1,
#510000
1!
1$
1'
13
1:
1=
0,
#540000
0!
0$
0'
03
0:
0=
1,
#570000
1!
1$
1'
13
1:
1=
0,
#600000
0!
0$
0'
03
0:
0=
1,
#630000
1!
1$
1'
13
1:
1=
0,
#660000
0!
0$
0'
03
0:
0=
1,
#690000
1!
1$
1'
13
1:
1=
0,
#720000
0!
0$
0'
03
0:
0=
1,
#750000
1!
1$
1'
13
1:
1=
0,
#780000
0!
0$
0'
03
0:
0=
1,
#810000
1!
1$
1'
13
1:
1=
0,
#840000
0!
0$
0'
03
0:
0=
1,
#870000
1!
1$
1'
13
1:
1=
0,
#900000
0!
0$
0'
03
0:
0=
1,
#930000
1!
1$
1'
13
1:
1=
0,
#960000
0!
0$
0'
03
0:
0=
1,
#990000
1!
1$
1'
13
1:
1=
0,
